<?xml version="1.0" standalone="no"?>
<!DOCTYPE svg PUBLIC "-//W3C//DTD SVG 1.1//EN" "http://www.w3.org/Graphics/SVG/1.1/DTD/svg11.dtd">
<svg xmlns="http://www.w3.org/2000/svg">
<metadata>Generated by Fontastic.me</metadata>
<defs>
<font id="untitled-font-2" horiz-adv-x="512">
<font-face font-family="untitled-font-2" units-per-em="512" ascent="480" descent="-32"/>
<missing-glyph horiz-adv-x="512" />

<glyph unicode="&#109;" d="M401 240c3-3 5-7 5-17 0-7 0-108 0-115 0-7-2-9-5-13-1-3-7-6-17-6-46 0-226-8-233-1 0 0-31 21-13 45 0 0-32 23-14 51 0 0-31 30-6 49-24 28-5 52 5 56l79 0c0 0 11-1 11 14 0 5-14 36-19 43-10 14-10 55 11 71 0 0 11 12 22 9 7-1 10-11 10-11 0 0 64-147 74-161 8-12 67-9 73-9 7 0 14-2 17-5z"/>
<glyph unicode="&#97;" d="M202 80c-47 0-52 2-54 4-3 2-18 13-20 29-1 6 0 13 3 19-11 10-24 30-14 52-5 5-15 18-14 32 1 6 3 12 8 17-11 15-11 27-9 36 3 12 12 22 19 25l1 0 81 0c4 0 5 5 5 9-1 4-13 34-18 40-11 15-12 60 11 78 2 2 12 11 23 11 1 0 3 0 5-1 9-2 12-12 13-14 18-41 66-149 73-160 1-1 7-7 49-7 6 0 11 0 15 0 2 0 3 0 4 0l1 0c7 0 16-2 21-6 4-5 6-11 6-21l0-115c0-8-2-11-5-15l0-1c-3-4-11-9-22-9-13 0-37 0-65-1-37-1-83-2-117-2z m-48 12c2 0 11-2 48-2 34 0 80 1 117 2 28 1 52 2 65 2 8 0 12 2 13 3l1 1c2 4 3 5 3 10l0 115c0 7-1 11-4 13-1 2-7 4-13 4l-1 5 0-5c-1 0-2 0-4 0-4 0-9-1-15-1-44 0-54 7-57 12-10 14-72 156-75 162l0 1c0 2-3 7-6 7-1 1-1 1-2 1-6 0-14-6-16-8l0-1c-19-14-18-52-10-64 5-6 20-39 20-46 0-14-8-19-15-19-1 0-1 0-1 0l-77 0c-5-2-11-8-13-17-2-10 1-21 10-31l4-4-4-3c-6-4-8-9-9-14 0-11 10-23 14-27l3-3-2-3c-15-24 12-44 13-45l4-3-3-4c-4-5-5-10-4-15 2-11 12-20 16-23z"/>
</font></defs></svg>
